2020-12-20 23:45 : Pierwszy raz zanotowano przedmiot w: C44
2021-02-17 07:49 : Przeniesiono do: H76
2021-04-15 10:49 : Przeniesiono do: Nie znaleziono
2021-04-15 10:49 : Produkt został zdjęty ze stanu