2020-12-20 23:45 : Pierwszy raz zanotowano przedmiot w: D44
2021-02-11 14:49 : Przeniesiono do: H76
2021-07-08 14:49 : Przeniesiono do: Nie znaleziono
2021-07-08 14:49 : Produkt został zdjęty ze stanu