2020-12-20 23:45 : Pierwszy raz zanotowano przedmiot w: RMK34
2020-12-22 16:49 : Przeniesiono do: C47
2021-01-04 13:49 : Przeniesiono do: Nie znaleziono
2021-01-04 13:49 : Produkt został zdjęty ze stanu