2021-01-25 07:49 : Pierwszy raz zanotowano przedmiot w: SKLEP
2021-04-23 07:49 : Przeniesiono do: R95
2021-08-26 15:49 : Przeniesiono do: Nie znaleziono
2021-08-26 15:49 : Produkt został zdjęty ze stanu