2020-12-20 23:45 : Pierwszy raz zanotowano przedmiot w: SKLEP
2021-04-23 07:49 : Przeniesiono do: R95
2021-09-23 08:49 : Przeniesiono do: Nie znaleziono
2021-09-23 08:49 : Produkt został zdjęty ze stanu