2021-01-08 16:49 : Pierwszy raz zanotowano przedmiot w: SKLEP
2021-04-23 07:49 : Przeniesiono do: R94
2021-04-26 14:49 : Przeniesiono do: Nie znaleziono
2021-04-26 14:49 : Produkt został zdjęty ze stanu