2021-04-30 16:49 : Pierwszy raz zanotowano przedmiot w: R71
2021-06-29 11:49 : Przeniesiono do: S16
2021-09-15 14:49 : Przeniesiono do: Nie znaleziono
2021-09-15 14:49 : Produkt został zdjęty ze stanu