2021-03-29 07:49 : Pierwszy raz zanotowano przedmiot w: SKLEP
2021-04-26 07:49 : Przeniesiono do: R04
2021-05-19 11:49 : Przeniesiono do: Nie znaleziono
2021-05-19 11:49 : Produkt został zdjęty ze stanu