2021-04-21 17:49 : Pierwszy raz zanotowano przedmiot w: P52
2021-05-10 07:49 : Przeniesiono do: Z67
2021-06-30 09:49 : Przeniesiono do: Nie znaleziono
2021-06-30 09:49 : Produkt został zdjęty ze stanu