2021-04-28 15:49 : Pierwszy raz zanotowano przedmiot w: H71.S180
2021-09-28 15:49 : Przeniesiono do: B31.S56
2021-10-29 10:49 : Przeniesiono do: Nie znaleziono
2021-10-29 10:49 : Produkt został zdjęty ze stanu