2020-12-20 23:45 : Pierwszy raz zanotowano przedmiot w: C04
2021-05-27 08:49 : Przeniesiono do: P06
2021-06-16 15:49 : Przeniesiono do: Nie znaleziono
2021-06-16 15:49 : Produkt został zdjęty ze stanu