2021-02-08 17:49 : Pierwszy raz zanotowano przedmiot w: SKLEP
2021-04-23 07:49 : Przeniesiono do: P35
2021-09-06 11:49 : Przeniesiono do: Nie znaleziono
2021-09-06 11:49 : Produkt został zdjęty ze stanu