2021-07-30 16:49 : Pierwszy raz zanotowano przedmiot w: AB94
2021-08-12 15:49 : Przeniesiono do: M95
2021-08-20 11:49 : Przeniesiono do: Nie znaleziono
2021-08-20 11:49 : Produkt został zdjęty ze stanu