2020-12-20 23:45 : Pierwszy raz zanotowano przedmiot w: J66
2021-02-16 07:49 : Przeniesiono do: H66
2021-04-15 11:49 : Przeniesiono do: Nie znaleziono
2021-04-15 11:49 : Produkt został zdjęty ze stanu