2021-03-10 07:49 : Pierwszy raz zanotowano przedmiot w: M87.K4
2021-03-15 16:49 : Przeniesiono do: Nie znaleziono
2021-03-15 16:49 : Produkt został zdjęty ze stanu
2021-03-16 17:49 : Przeniesiono do: C68.K1