2020-12-20 23:45 : Pierwszy raz zanotowano przedmiot w: Z26
2021-03-09 14:49 : Przeniesiono do: Z34
2021-04-07 10:49 : Przeniesiono do: Nie znaleziono
2021-04-07 10:49 : Produkt został zdjęty ze stanu