2020-12-20 23:45 : Pierwszy raz zanotowano przedmiot w: G12
2020-12-23 10:49 : Przeniesiono do: H71
2021-06-09 13:49 : Przeniesiono do: Nie znaleziono
2021-06-09 13:49 : Produkt został zdjęty ze stanu