2021-05-05 07:49 : Pierwszy raz zanotowano przedmiot w: A87.K1
2021-06-28 10:49 : Przeniesiono do: Nie znaleziono
2021-06-28 10:49 : Produkt został zdjęty ze stanu
2021-09-20 15:49 : Przeniesiono do: S08.K12