2020-12-20 23:45 : Pierwszy raz zanotowano przedmiot w: E71
2020-12-22 15:49 : Przeniesiono do: M03
2020-12-31 13:49 : Przeniesiono do: Nie znaleziono
2020-12-31 13:49 : Produkt został zdjęty ze stanu