2020-12-20 23:45 : Pierwszy raz zanotowano przedmiot w: Gabinet
2021-06-14 07:49 : Przeniesiono do: S02
2021-08-03 14:49 : Przeniesiono do: Nie znaleziono
2021-08-03 14:49 : Produkt został zdjęty ze stanu