2021-02-11 07:49 : Pierwszy raz zanotowano przedmiot w: Nie znaleziono
2021-02-26 16:49 : Przeniesiono do: I86
2021-10-22 14:49 : Przeniesiono do: Nie znaleziono
2021-10-22 14:49 : Produkt został zdjęty ze stanu