2020-12-20 23:45 : Pierwszy raz zanotowano przedmiot w: F13
2021-05-21 16:49 : Przeniesiono do: E36
2021-10-19 10:49 : Przeniesiono do: Nie znaleziono
2021-10-19 10:49 : Produkt został zdjęty ze stanu