2021-03-29 07:49 : Pierwszy raz zanotowano przedmiot w: L68
2021-05-11 11:49 : Przeniesiono do: H55
2021-05-11 14:49 : Przeniesiono do: Nie znaleziono
2021-05-11 14:49 : Produkt został zdjęty ze stanu