2021-04-29 16:49 : Pierwszy raz zanotowano przedmiot w: H17.K5
2021-05-27 08:49 : Przeniesiono do: J07.K12
2021-06-28 12:49 : Przeniesiono do: Nie znaleziono
2021-06-28 12:49 : Produkt został zdjęty ze stanu