2020-12-20 23:45 : Pierwszy raz zanotowano przedmiot w: B85
2021-01-05 10:49 : Przeniesiono do: E85
2021-01-08 12:49 : Przeniesiono do: E86
2021-04-21 12:49 : Przeniesiono do: Nie znaleziono
2021-04-21 12:49 : Produkt został zdjęty ze stanu