2020-12-29 16:49 : Pierwszy raz zanotowano przedmiot w: A03
2021-03-02 15:49 : Przeniesiono do: E44
2021-04-14 09:49 : Przeniesiono do: Nie znaleziono
2021-04-14 09:49 : Produkt został zdjęty ze stanu