2020-12-20 23:45 : Pierwszy raz zanotowano przedmiot w: K76
2021-03-29 07:49 : Przeniesiono do: F56
2021-04-29 14:49 : Przeniesiono do: D48
2021-05-10 07:49 : Przeniesiono do: Z67
2021-05-12 10:49 : Przeniesiono do: Nie znaleziono
2021-05-12 10:49 : Produkt został zdjęty ze stanu