2020-12-20 23:45 : Pierwszy raz zanotowano przedmiot w: J82
2021-02-11 14:49 : Przeniesiono do: H76
2021-04-12 12:49 : Przeniesiono do: Nie znaleziono
2021-04-12 12:49 : Produkt został zdjęty ze stanu