2020-12-20 23:45 : Pierwszy raz zanotowano przedmiot w: F62
2021-01-15 13:49 : Przeniesiono do: F84
2021-03-11 08:49 : Przeniesiono do: Nie znaleziono
2021-03-11 08:49 : Produkt został zdjęty ze stanu