2021-03-04 16:49 : Pierwszy raz zanotowano przedmiot w: SKLEP
2021-04-22 09:49 : Przeniesiono do: P34
2021-10-28 15:49 : Przeniesiono do: Nie znaleziono
2021-10-28 15:49 : Produkt został zdjęty ze stanu