2021-02-25 07:49 : Pierwszy raz zanotowano przedmiot w: SKLEP
2021-04-23 07:49 : Przeniesiono do: P32
2021-10-18 16:49 : Przeniesiono do: Nie znaleziono
2021-10-18 16:49 : Produkt został zdjęty ze stanu