2021-03-22 07:49 : Pierwszy raz zanotowano przedmiot w: SKLEP
2021-04-22 09:49 : Przeniesiono do: P33
2021-04-22 10:49 : Przeniesiono do: Nie znaleziono
2021-04-22 10:49 : Produkt został zdjęty ze stanu