2021-03-24 17:49 : Pierwszy raz zanotowano przedmiot w: SKLEP
2021-04-26 07:49 : Przeniesiono do: R05
2021-10-07 10:49 : Przeniesiono do: Nie znaleziono
2021-10-07 10:49 : Produkt został zdjęty ze stanu