2021-04-21 07:49 : Pierwszy raz zanotowano przedmiot w: SKLEP
2021-04-23 11:49 : Przeniesiono do: B38
2021-05-05 10:49 : Przeniesiono do: Nie znaleziono
2021-05-05 10:49 : Produkt został zdjęty ze stanu