2021-04-14 07:49 : Pierwszy raz zanotowano przedmiot w: SKLEP
2021-04-23 07:49 : Przeniesiono do: R94
2021-05-14 12:49 : Przeniesiono do: Nie znaleziono
2021-05-14 12:49 : Produkt został zdjęty ze stanu