2021-03-24 17:49 : Pierwszy raz zanotowano przedmiot w: SKLEP
2021-04-23 07:49 : Przeniesiono do: R92
2021-05-20 13:49 : Przeniesiono do: Nie znaleziono
2021-05-20 13:49 : Produkt został zdjęty ze stanu