2021-04-21 07:49 : Pierwszy raz zanotowano przedmiot w: SKLEP10.5
2021-04-23 07:49 : Przeniesiono do: P35
2021-04-28 15:49 : Przeniesiono do: Nie znaleziono
2021-04-28 15:49 : Produkt został zdjęty ze stanu