2021-04-19 17:49 : Pierwszy raz zanotowano przedmiot w: SKLEP9.2
2021-04-22 09:49 : Przeniesiono do: P34
2021-10-18 16:49 : Przeniesiono do: Nie znaleziono
2021-10-18 16:49 : Produkt został zdjęty ze stanu