2021-04-21 07:49 : Pierwszy raz zanotowano przedmiot w: SKLEP5.1
2021-04-23 07:49 : Przeniesiono do: P36
2021-08-26 13:49 : Przeniesiono do: Nie znaleziono
2021-08-26 13:49 : Produkt został zdjęty ze stanu