2021-04-21 07:49 : Pierwszy raz zanotowano przedmiot w: SKLEP13.5
2021-04-23 07:49 : Przeniesiono do: P35
2021-10-11 10:49 : Przeniesiono do: Nie znaleziono
2021-10-11 10:49 : Produkt został zdjęty ze stanu