2020-12-20 23:45 : Pierwszy raz zanotowano przedmiot w: Z45
2021-02-04 12:49 : Przeniesiono do: Z55
2021-08-09 11:49 : Przeniesiono do: Nie znaleziono
2021-08-09 11:49 : Produkt został zdjęty ze stanu