2020-12-20 23:45 : Pierwszy raz zanotowano przedmiot w: M13
2021-06-21 10:49 : Przeniesiono do: I04
2021-10-22 09:49 : Przeniesiono do: Nie znaleziono
2021-10-22 09:49 : Produkt został zdjęty ze stanu