2021-07-29 16:49 : Pierwszy raz zanotowano przedmiot w: A47.S178
2021-08-09 13:49 : Przeniesiono do: Nie znaleziono
2021-08-09 13:49 : Produkt został zdjęty ze stanu
2021-09-08 15:49 : Przeniesiono do: S46