2021-07-29 16:49 : Pierwszy raz zanotowano przedmiot w: G21.S125
2021-08-19 08:49 : Przeniesiono do: Nie znaleziono
2021-08-19 08:49 : Produkt został zdjęty ze stanu
2021-09-08 15:49 : Przeniesiono do: AB26